DFG/simulation/qsim/DFG.msim.vcd
$comment
	File created using the following command:
		vcd file DFG.msim.vcd -direction
$end
$date
	Sun Mar 08 15:06:02 2026
$end
$version
	ModelSim Version 10.5b
$end
$timescale
	1ps
$end

$scope module sinGen_vlg_vec_tst $end
$var reg 1 ! system_clk $end
$var wire 1 " CLK_out $end
$var wire 1 # out [7] $end
$var wire 1 $ out [6] $end
$var wire 1 % out [5] $end
$var wire 1 & out [4] $end
$var wire 1 ' out [3] $end
$var wire 1 ( out [2] $end
$var wire 1 ) out [1] $end
$var wire 1 * out [0] $end

$scope module i1 $end
$var wire 1 + gnd $end
$var wire 1 , vcc $end
$var wire 1 - unknown $end
$var tri1 1 . devclrn $end
$var tri1 1 / devpor $end
$var tri1 1 0 devoe $end
$var wire 1 1 CLK_out~output_o $end
$var wire 1 2 out[7]~output_o $end
$var wire 1 3 out[6]~output_o $end
$var wire 1 4 out[5]~output_o $end
$var wire 1 5 out[4]~output_o $end
$var wire 1 6 out[3]~output_o $end
$var wire 1 7 out[2]~output_o $end
$var wire 1 8 out[1]~output_o $end
$var wire 1 9 out[0]~output_o $end
$var wire 1 : system_clk~input_o $end
$var wire 1 ; system_clk~inputclkctrl_outclk $end
$var wire 1 < inst3|dac_data[0]~21_combout $end
$var wire 1 = inst3|dac_data[1]~7_combout $end
$var wire 1 > inst3|dac_data[1]~8 $end
$var wire 1 ? inst3|dac_data[2]~9_combout $end
$var wire 1 @ inst3|dac_data[2]~10 $end
$var wire 1 A inst3|dac_data[3]~11_combout $end
$var wire 1 B inst3|dac_data[3]~12 $end
$var wire 1 C inst3|dac_data[4]~13_combout $end
$var wire 1 D inst3|dac_data[4]~14 $end
$var wire 1 E inst3|dac_data[5]~15_combout $end
$var wire 1 F inst3|dac_data[5]~16 $end
$var wire 1 G inst3|dac_data[6]~17_combout $end
$var wire 1 H inst3|dac_data[6]~18 $end
$var wire 1 I inst3|dac_data[7]~19_combout $end
$var wire 1 J inst|altsyncram_component|auto_generated|q_a [7] $end
$var wire 1 K inst|altsyncram_component|auto_generated|q_a [6] $end
$var wire 1 L inst|altsyncram_component|auto_generated|q_a [5] $end
$var wire 1 M inst|altsyncram_component|auto_generated|q_a [4] $end
$var wire 1 N inst|altsyncram_component|auto_generated|q_a [3] $end
$var wire 1 O inst|altsyncram_component|auto_generated|q_a [2] $end
$var wire 1 P inst|altsyncram_component|auto_generated|q_a [1] $end
$var wire 1 Q inst|altsyncram_component|auto_generated|q_a [0] $end
$var wire 1 R inst3|dac_data [7] $end
$var wire 1 S inst3|dac_data [6] $end
$var wire 1 T inst3|dac_data [5] $end
$var wire 1 U inst3|dac_data [4] $end
$var wire 1 V inst3|dac_data [3] $end
$var wire 1 W inst3|dac_data [2] $end
$var wire 1 X inst3|dac_data [1] $end
$var wire 1 Y inst3|dac_data [0] $end
$var wire 1 Z inst|altsyncram_component|auto_generated|ram_block1a0_PORTADATAOUT_bus [17] $end
$var wire 1 [ inst|altsyncram_component|auto_generated|ram_block1a0_PORTADATAOUT_bus [16] $end
$var wire 1 \ inst|altsyncram_component|auto_generated|ram_block1a0_PORTADATAOUT_bus [15] $end
$var wire 1 ] inst|altsyncram_component|auto_generated|ram_block1a0_PORTADATAOUT_bus [14] $end
$var wire 1 ^ inst|altsyncram_component|auto_generated|ram_block1a0_PORTADATAOUT_bus [13] $end
$var wire 1 _ inst|altsyncram_component|auto_generated|ram_block1a0_PORTADATAOUT_bus [12] $end
$var wire 1 ` inst|altsyncram_component|auto_generated|ram_block1a0_PORTADATAOUT_bus [11] $end
$var wire 1 a inst|altsyncram_component|auto_generated|ram_block1a0_PORTADATAOUT_bus [10] $end
$var wire 1 b inst|altsyncram_component|auto_generated|ram_block1a0_PORTADATAOUT_bus [9] $end
$var wire 1 c inst|altsyncram_component|auto_generated|ram_block1a0_PORTADATAOUT_bus [8] $end
$var wire 1 d inst|altsyncram_component|auto_generated|ram_block1a0_PORTADATAOUT_bus [7] $end
$var wire 1 e inst|altsyncram_component|auto_generated|ram_block1a0_PORTADATAOUT_bus [6] $end
$var wire 1 f inst|altsyncram_component|auto_generated|ram_block1a0_PORTADATAOUT_bus [5] $end
$var wire 1 g inst|altsyncram_component|auto_generated|ram_block1a0_PORTADATAOUT_bus [4] $end
$var wire 1 h inst|altsyncram_component|auto_generated|ram_block1a0_PORTADATAOUT_bus [3] $end
$var wire 1 i inst|altsyncram_component|auto_generated|ram_block1a0_PORTADATAOUT_bus [2] $end
$var wire 1 j inst|altsyncram_component|auto_generated|ram_block1a0_PORTADATAOUT_bus [1] $end
$var wire 1 k inst|altsyncram_component|auto_generated|ram_block1a0_PORTADATAOUT_bus [0] $end
$upscope $end
$upscope $end
$enddefinitions $end
#0
$dumpvars
0!
0"
0*
0)
0(
0'
0&
0%
0$
0#
0+
1,
x-
1.
1/
10
01
02
03
04
05
06
07
08
09
0:
0;
1<
0=
0>
0?
1@
0A
0B
0C
1D
0E
0F
0G
1H
0I
0Q
0P
0O
0N
0M
0L
0K
0J
0Y
0X
0W
0V
0U
0T
0S
0R
0k
0j
0i
0h
0g
0f
0e
0d
0c
0b
0a
0`
0_
0^
0]
0\
0[
0Z
$end
#5000
1!
1:
1;
11
1"
1Y
1=
0<
#10000
0!
0:
0;
01
0"
#15000
1!
1:
1;
11
1"
1X
0Y
1k
1j
1i
1h
1g
1f
1e
1Q
1P
1O
1N
1M
1L
1K
13
14
15
16
17
18
19
1*
1)
1(
1'
1&
1%
1$
1<
#20000
0!
0:
0;
01
0"
#25000
1!
1:
1;
11
1"
1Y
0k
0i
0h
0g
0f
0e
1d
0Q
0O
0N
0M
0L
0K
1J
12
03
04
05
06
07
09
1>
0*
0(
0'
0&
0%
0$
1#
0=
0<
1?
#30000
0!
0:
0;
01
0"
#35000
1!
1:
1;
11
1"
1W
0X
0Y
1k
0j
1i
1Q
0P
1O
17
08
19
0@
0>
1*
0)
1(
0?
1<
1@
1A
1?
0A
#40000
0!
0:
0;
01
0"
#45000
1!
1:
1;
11
1"
1Y
0k
0i
1h
0Q
0O
1N
16
07
09
0*
0(
1'
1=
0<
#50000
0!
0:
0;
01
0"
#55000
1!
1:
1;
11
1"
1X
0Y
1k
1j
1Q
1P
18
19
1*
1)
1<
#60000
0!
0:
0;
01
0"
#65000
1!
1:
1;
11
1"
1Y
1i
1O
17
1>
1(
0=
0<
0@
0?
1A
#70000
0!
0:
0;
01
0"
#75000
1!
1:
1;
11
1"
1V
0W
0X
0Y
0k
0i
0h
1g
0Q
0O
0N
1M
15
06
07
09
1B
1@
0>
0*
0(
0'
1&
0A
1?
1<
0B
1C
1A
0?
0C
#80000
0!
0:
0;
01
0"
#85000
1!
1:
1;
11
1"
1Y
1k
0j
1i
1Q
0P
1O
17
08
19
1*
0)
1(
1=
0<
#90000
0!
0:
0;
01
0"
#95000
1!
1:
1;
11
1"
1X
0Y
0k
0i
1h
0Q
0O
1N
16
07
09
0*
0(
1'
1<
#100000
0!
0:
0;
01
0"
#105000
1!
1:
1;
11
1"
1Y
1k
1j
1Q
1P
18
19
1>
1*
1)
0=
0<
1?
#110000
0!
0:
0;
01
0"
#115000
1!
1:
1;
11
1"
1W
0X
0Y
0k
1i
0Q
1O
17
09
0@
0>
0*
1(
0?
1<
1B
1@
0A
1?
0B
1C
1A
0C
#120000
0!
0:
0;
01
0"
#125000
1!
1:
1;
11
1"
1Y
1k
0j
0i
0h
0g
1f
1Q
0P
0O
0N
0M
1L
14
05
06
07
08
19
1*
0)
0(
0'
0&
1%
1=
0<
#130000
0!
0:
0;
01
0"
#135000
1!
1:
1;
11
1"
1X
0Y
0k
1i
0Q
1O
17
09
0*
1(
1<
#140000
0!
0:
0;
01
0"
#145000
1!
1:
1;
11
1"
1Y
1k
1j
1Q
1P
18
19
1>
1*
1)
0=
0<
0@
0?
1B
0A
1C
#150000
0!
0:
0;
01
0"
#155000
1!
1:
1;
11
1"
1U
0V
0W
0X
0Y
0k
0i
1h
0Q
0O
1N
16
07
09
0D
0B
1@
0>
0*
0(
1'
0C
1A
1?
1<
1D
1E
1C
0A
0?
0E
#160000
0!
0:
0;
01
0"
#165000
1!
1:
1;
11
1"
1Y
1k
0j
1i
1Q
0P
1O
17
08
19
1*
0)
1(
1=
0<
#170000
0!
0:
0;
01
0"
#175000
1!
1:
1;
11
1"
1X
0Y
0k
0i
0h
1g
0Q
0O
0N
1M
15
06
07
09
0*
0(
0'
1&
1<
#180000
0!
0:
0;
01
0"
#185000
1!
1:
1;
11
1"
1Y
1k
1j
1Q
1P
18
19
1>
1*
1)
0=
0<
1?
#190000
0!
0:
0;
01
0"
#195000
1!
1:
1;
11
1"
1W
0X
0Y
0k
1i
0Q
1O
17
09
0@
0>
0*
1(
0?
1<
1@
1A
1?
0A
#200000
0!
0:
0;
01
0"
#205000
1!
1:
1;
11
1"
1Y
0j
0i
1h
0P
0O
1N
16
07
08
0)
0(
1'
1=
0<
#210000
0!
0:
0;
01
0"
#215000
1!
1:
1;
11
1"
1X
0Y
1k
1j
1Q
1P
18
19
1*
1)
1<
#220000
0!
0:
0;
01
0"
#225000
1!
1:
1;
11
1"
1Y
0k
1i
0Q
1O
17
09
1>
0*
1(
0=
0<
0@
0?
1A
#230000
0!
0:
0;
01
0"
#235000
1!
1:
1;
11
1"
1V
0W
0X
0Y
1k
0j
0i
0h
0g
0f
1e
1Q
0P
0O
0N
0M
0L
1K
13
04
05
06
07
08
19
1B
1@
0>
1*
0)
0(
0'
0&
0%
1$
0A
1?
1<
0D
0B
0C
1A
0?
1D
1E
1C
0E
#240000
0!
0:
0;
01
0"
#245000
1!
1:
1;
11
1"
1Y
1j
1P
18
1)
1=
0<
#250000
0!
0:
0;
01
0"
#255000
1!
1:
1;
11
1"
1X
0Y
0k
1i
0Q
1O
17
09
0*
1(
1<
#260000
0!
0:
0;
01
0"
#265000
1!
1:
1;
11
1"
1Y
0j
0i
1h
0P
0O
1N
16
07
08
1>
0)
0(
1'
0=
0<
1?
#270000
0!
0:
0;
01
0"
#275000
1!
1:
1;
11
1"
1W
0X
0Y
1k
1j
1Q
1P
18
19
0@
0>
1*
1)
0?
1<
1B
1@
0A
1?
0D
0B
0C
1A
1D
1E
1C
0E
#280000
0!
0:
0;
01
0"
#285000
1!
1:
1;
11
1"
1Y
0j
1i
0P
1O
17
08
0)
1(
1=
0<
#290000
0!
0:
0;
01
0"
#295000
1!
1:
1;
11
1"
1X
0Y
0k
0i
0h
1g
0Q
0O
0N
1M
15
06
07
09
0*
0(
0'
1&
1<
#300000
0!
0:
0;
01
0"
#305000
1!
1:
1;
11
1"
1Y
1j
1P
18
1>
1)
0=
0<
0@
0?
1B
0A
0D
0C
1E
#310000
0!
0:
0;
01
0"
#315000
1!
1:
1;
11
1"
1T
0U
0V
0W
0X
0Y
1k
0j
1i
1Q
0P
1O
17
08
19
1F
1D
0B
1@
0>
1*
0)
1(
0E
1C
1A
1?
1<
0F
1G
1E
0C
0A
0?
0G
#320000
0!
0:
0;
01
0"
#325000
1!
1:
1;
11
1"
1Y
1j
1P
18
1)
1=
0<
#330000
0!
0:
0;
01
0"
#335000
1!
1:
1;
11
1"
1X
0Y
0j
0i
1h
0P
0O
1N
16
07
08
0)
0(
1'
1<
#340000
0!
0:
0;
01
0"
#345000
1!
1:
1;
11
1"
1Y
1j
1P
18
1>
1)
0=
0<
1?
#350000
0!
0:
0;
01
0"
#355000
1!
1:
1;
11
1"
1W
0X
0Y
0j
1i
0P
1O
17
08
0@
0>
0)
1(
0?
1<
1@
1A
1?
0A
#360000
0!
0:
0;
01
0"
#365000
1!
1:
1;
11
1"
1Y
0k
0i
0h
0g
1f
0Q
0O
0N
0M
1L
14
05
06
07
09
0*
0(
0'
0&
1%
1=
0<
#370000
0!
0:
0;
01
0"
#375000
1!
1:
1;
11
1"
1X
0Y
1j
1P
18
1)
1<
#380000
0!
0:
0;
01
0"
#385000
1!
1:
1;
11
1"
1Y
0j
1i
0P
1O
17
08
1>
0)
1(
0=
0<
0@
0?
1A
#390000
0!
0:
0;
01
0"
#395000
1!
1:
1;
11
1"
1V
0W
0X
0Y
1k
1Q
19
1B
1@
0>
1*
0A
1?
1<
0B
1C
1A
0?
0C
#400000
0!
0:
0;
01
0"
#405000
1!
1:
1;
11
1"
1Y
1j
1P
18
1)
1=
0<
#410000
0!
0:
0;
01
0"
#415000
1!
1:
1;
11
1"
1X
0Y
0j
0i
1h
0P
0O
1N
16
07
08
0)
0(
1'
1<
#420000
0!
0:
0;
01
0"
#425000
1!
1:
1;
11
1"
1Y
1j
1P
18
1>
1)
0=
0<
1?
#430000
0!
0:
0;
01
0"
#435000
1!
1:
1;
11
1"
1W
0X
0Y
0k
0j
1i
0Q
0P
1O
17
08
09
0@
0>
0*
0)
1(
0?
1<
1B
1@
0A
1?
0B
1C
1A
0C
#440000
0!
0:
0;
01
0"
#445000
1!
1:
1;
11
1"
1Y
1j
1P
18
1)
1=
0<
#450000
0!
0:
0;
01
0"
#455000
1!
1:
1;
11
1"
1X
0Y
1k
1Q
19
1*
1<
#460000
0!
0:
0;
01
0"
#465000
1!
1:
1;
11
1"
1Y
0j
0i
0h
1g
0P
0O
0N
1M
15
06
07
08
1>
0)
0(
0'
1&
0=
0<
0@
0?
1B
0A
1C
#470000
0!
0:
0;
01
0"
#475000
1!
1:
1;
11
1"
1U
0V
0W
0X
0Y
0k
1j
0Q
1P
18
09
0D
0B
1@
0>
0*
1)
0C
1A
1?
1<
1F
1D
0E
1C
0A
0?
0F
1G
1E
0G
#480000
0!
0:
0;
01
0"
#485000
1!
1:
1;
11
1"
1Y
0j
1i
0P
1O
17
08
0)
1(
1=
0<
#490000
0!
0:
0;
01
0"
#495000
1!
1:
1;
11
1"
1X
0Y
1k
1Q
19
1*
1<
#500000
0!
0:
0;
01
0"
#505000
1!
1:
1;
11
1"
1Y
0k
1j
0Q
1P
18
09
1>
0*
1)
0=
0<
1?
#510000
0!
0:
0;
01
0"
#515000
1!
1:
1;
11
1"
1W
0X
0Y
1k
1Q
19
0@
0>
1*
0?
1<
1@
1A
1?
0A
#520000
0!
0:
0;
01
0"
#525000
1!
1:
1;
11
1"
1Y
0k
0j
0i
1h
0Q
0P
0O
1N
16
07
08
09
0*
0)
0(
1'
1=
0<
#530000
0!
0:
0;
01
0"
#535000
1!
1:
1;
11
1"
1X
0Y
1k
1Q
19
1*
1<
#540000
0!
0:
0;
01
0"
#545000
1!
1:
1;
11
1"
1Y
0k
1j
0Q
1P
18
09
1>
0*
1)
0=
0<
0@
0?
1A
#550000
0!
0:
0;
01
0"
#555000
1!
1:
1;
11
1"
1V
0W
0X
0Y
1k
1Q
19
1B
1@
0>
1*
0A
1?
1<
0D
0B
0C
1A
0?
1F
1D
0E
1C
0F
1G
1E
0G
#560000
0!
0:
0;
01
0"
#565000
1!
1:
1;
11
1"
1Y
1=
0<
#570000
0!
0:
0;
01
0"
#575000
1!
1:
1;
11
1"
1X
0Y
0k
0j
1i
0Q
0P
1O
17
08
09
0*
0)
1(
1<
#580000
0!
0:
0;
01
0"
#585000
1!
1:
1;
11
1"
1Y
1k
1Q
19
1>
1*
0=
0<
1?
#590000
0!
0:
0;
01
0"
#595000
1!
1:
1;
11
1"
1W
0X
0Y
0@
0>
0?
1<
1B
1@
0A
1?
0D
0B
0C
1A
1F
1D
0E
1C
0F
1G
1E
0G
#600000
0!
0:
0;
01
0"
#605000
1!
1:
1;
11
1"
1Y
0k
1j
0Q
1P
18
09
0*
1)
1=
0<
#610000
0!
0:
0;
01
0"
#615000
1!
1:
1;
11
1"
1X
0Y
1<
#620000
0!
0:
0;
01
0"
#625000
1!
1:
1;
11
1"
1Y
1>
0=
0<
0@
0?
1B
0A
0D
0C
1F
0E
1G
#630000
0!
0:
0;
01
0"
#635000
1!
1:
1;
11
1"
1S
0T
0U
0V
0W
0X
0Y
0H
0F
1D
0B
1@
0>
0G
1E
1C
1A
1?
1<
1H
1I
1G
0E
0C
0A
0?
0I
#640000
0!
0:
0;
01
0"
#645000
1!
1:
1;
11
1"
1Y
1=
0<
#650000
0!
0:
0;
01
0"
#655000
1!
1:
1;
11
1"
1X
0Y
1k
1Q
19
1*
1<
#660000
0!
0:
0;
01
0"
#665000
1!
1:
1;
11
1"
1Y
0k
0Q
09
1>
0*
0=
0<
1?
#670000
0!
0:
0;
01
0"
#675000
1!
1:
1;
11
1"
1W
0X
0Y
0@
0>
0?
1<
1@
1A
1?
0A
#680000
0!
0:
0;
01
0"
#685000
1!
1:
1;
11
1"
1Y
1=
0<
#690000
0!
0:
0;
01
0"
#695000
1!
1:
1;
11
1"
1X
0Y
1<
#700000
0!
0:
0;
01
0"
#705000
1!
1:
1;
11
1"
1Y
1>
0=
0<
0@
0?
1A
#710000
0!
0:
0;
01
0"
#715000
1!
1:
1;
11
1"
1V
0W
0X
0Y
1k
0j
1Q
0P
08
19
1B
1@
0>
1*
0)
0A
1?
1<
0B
1C
1A
0?
0C
#720000
0!
0:
0;
01
0"
#725000
1!
1:
1;
11
1"
1Y
1=
0<
#730000
0!
0:
0;
01
0"
#735000
1!
1:
1;
11
1"
1X
0Y
0k
0Q
09
0*
1<
#740000
0!
0:
0;
01
0"
#745000
1!
1:
1;
11
1"
1Y
1k
1j
0i
1Q
1P
0O
07
18
19
1>
1*
1)
0(
0=
0<
1?
#750000
0!
0:
0;
01
0"
#755000
1!
1:
1;
11
1"
1W
0X
0Y
0@
0>
0?
1<
1B
1@
0A
1?
0B
1C
1A
0C
#760000
0!
0:
0;
01
0"
#765000
1!
1:
1;
11
1"
1Y
0k
0Q
09
0*
1=
0<
#770000
0!
0:
0;
01
0"
#775000
1!
1:
1;
11
1"
1X
0Y
1k
0j
1Q
0P
08
19
1*
0)
1<
#780000
0!
0:
0;
01
0"
#785000
1!
1:
1;
11
1"
1Y
0k
0Q
09
1>
0*
0=
0<
0@
0?
1B
0A
1C
#790000
0!
0:
0;
01
0"
#795000
1!
1:
1;
11
1"
1U
0V
0W
0X
0Y
1k
1j
1i
0h
1Q
1P
1O
0N
06
17
18
19
0D
0B
1@
0>
1*
1)
1(
0'
0C
1A
1?
1<
1D
1E
1C
0A
0?
0E
#800000
0!
0:
0;
01
0"
#805000
1!
1:
1;
11
1"
1Y
0k
0Q
09
0*
1=
0<
#810000
0!
0:
0;
01
0"
#815000
1!
1:
1;
11
1"
1X
0Y
1k
0j
1Q
0P
08
19
1*
0)
1<
#820000
0!
0:
0;
01
0"
#825000
1!
1:
1;
11
1"
1Y
0k
0Q
09
1>
0*
0=
0<
1?
#830000
0!
0:
0;
01
0"
#835000
1!
1:
1;
11
1"
1W
0X
0Y
1j
0i
1P
0O
07
18
0@
0>
1)
0(
0?
1<
1@
1A
1?
0A
#840000
0!
0:
0;
01
0"
#845000
1!
1:
1;
11
1"
1Y
1k
0j
1Q
0P
08
19
1*
0)
1=
0<
#850000
0!
0:
0;
01
0"
#855000
1!
1:
1;
11
1"
1X
0Y
1j
1i
1h
0g
1P
1O
1N
0M
05
16
17
18
1)
1(
1'
0&
1<
#860000
0!
0:
0;
01
0"
#865000
1!
1:
1;
11
1"
1Y
0k
0Q
09
1>
0*
0=
0<
0@
0?
1A
#870000
0!
0:
0;
01
0"
#875000
1!
1:
1;
11
1"
1V
0W
0X
0Y
0j
0P
08
1B
1@
0>
0)
0A
1?
1<
0D
0B
0C
1A
0?
1D
1E
1C
0E
#880000
0!
0:
0;
01
0"
#885000
1!
1:
1;
11
1"
1Y
1k
1j
0i
1Q
1P
0O
07
18
19
1*
1)
0(
1=
0<
#890000
0!
0:
0;
01
0"
#895000
1!
1:
1;
11
1"
1X
0Y
0j
0P
08
0)
1<
#900000
0!
0:
0;
01
0"
#905000
1!
1:
1;
11
1"
1Y
1j
1i
0h
1P
1O
0N
06
17
18
1>
1)
1(
0'
0=
0<
1?
#910000
0!
0:
0;
01
0"
#915000
1!
1:
1;
11
1"
1W
0X
0Y
0j
0P
08
0@
0>
0)
0?
1<
1B
1@
0A
1?
0D
0B
0C
1A
1D
1E
1C
0E
#920000
0!
0:
0;
01
0"
#925000
1!
1:
1;
11
1"
1Y
0k
0Q
09
0*
1=
0<
#930000
0!
0:
0;
01
0"
#935000
1!
1:
1;
11
1"
1X
0Y
1j
0i
1P
0O
07
18
1)
0(
1<
#940000
0!
0:
0;
01
0"
#945000
1!
1:
1;
11
1"
1Y
0j
0P
08
1>
0)
0=
0<
0@
0?
1B
0A
0D
0C
1E
#950000
0!
0:
0;
01
0"
#955000
1!
1:
1;
11
1"
1T
0U
0V
0W
0X
0Y
1k
1i
1h
1g
0f
1Q
1O
1N
1M
0L
04
15
16
17
19
1F
1D
0B
1@
0>
1*
1(
1'
1&
0%
0E
1C
1A
1?
1<
0H
0F
0G
1E
0C
0A
0?
1H
1I
1G
0I
#960000
0!
0:
0;
01
0"
#965000
1!
1:
1;
11
1"
1Y
1j
0i
1P
0O
07
18
1)
0(
1=
0<
#970000
0!
0:
0;
01
0"
#975000
1!
1:
1;
11
1"
1X
0Y
0j
0P
08
0)
1<
#980000
0!
0:
0;
01
0"
#985000
1!
1:
1;
11
1"
1Y
1j
1i
0h
1P
1O
0N
06
17
18
1>
1)
1(
0'
0=
0<
1?
#990000
0!
0:
0;
01
0"
#995000
1!
1:
1;
11
1"
1W
0X
0Y
0j
0P
08
0@
0>
0)
0?
1<
1@
1A
1?
0A
